[
  {
    "_id" : {
      "$oid": "5ae9d64d4cb3dd109851066d"
    },
    "hour": "10:00",
    "isCompleted": false,
    "styles": 0,
    "fullDay": 2,
    "multipleVisits": 1,
    "dayId": {
      "$oid": "5ae9d64d4cb3dd109851066d" 
    }
  },
  {
    "_id" : {
      "$oid": "5ae9364d0cb3d2109851066d"
    },
    "hour": "11:00",
    "isCompleted": false,
    "styles": 0,
    "fullDay": 2,
    "multipleVisits": 1,
    "dayId": {
      "$oid": "5ae9d64d4cb3dd109851066d" 
    }
  },
  {
    "_id" : {
      "$oid": "5ae9364d4cb3d2109851066d"
    },
    "hour": "02:00",
    "isCompleted": true,
    "styles": 1,
    "fullDay": 2,
    "multipleVisits": 2,
    "dayId": {
      "$oid": "5ae9d64d4cb3dd109851066d" 
    }
  },
  {
    "_id" : {
      "$oid": "5ae9d64d4cb3d6109851066d"
    },
    "hour": "06:00",
    "isCompleted": false,
    "styles": 1,
    "fullDay": 2,
    "multipleVisits": 1,
    "dayId": {
      "$oid": "5ae9d64d4cb3dd109851066d" 
    }
  },
  {
    "_id" : {
      "$oid": "5ae9d64d8cb3dd109851066d"
    },
    "hour": "04:00",
    "isCompleted": false,
    "styles": 0,
    "fullDay": 2,
    "multipleVisits": 1,
    "dayId": {
      "$oid": "5ae9d64d4cb3dd109851066d" 
    }
  },
  {
    "_id" : {
      "$oid": "5ae9d64d4cb3de109851066d"
    },
    "hour": "12:00",
    "isCompleted": false,
    "styles": 0,
    "fullDay": 2,
    "multipleVisits": 0,
    "dayId": {
      "$oid": "5ae9d64d4cb3dd109851066d" 
    }
  }
]
