[
    {
      "_id" : {
        "$oid": "5ae9d64d4cb3dd109851066d"
      },
      "name": "ahmed",
      "isDeleted": false,
      "email": "aattia346@gmail.com",
      "mobile": "11111111111",
      "content": "good",
      "reply": "ok"
    },
    {
      "_id" : {
        "$oid": "5ae9464d4cb3dd109851066d"
      },
      "name": "attia",
      "isDeleted": false,
      "email": "aahamed346@gmail.com",
      "mobile": "222222222222",
      "content": "bad",
      "reply": "we will see"
    },
    {
      "_id" : {
        "$oid": "4ae9d64d4cb3dd109851066d"
      },
      "name": "mohamed",
      "isDeleted": false,
      "email": "aamohamed135@gmail.com",
      "mobile": "33333333333",
      "content": "ugly",
      "reply": "not that bad"
    }
  ]
