{
  "name": "contactUs",
  "base": "PersistedModel",
  "idInjection": true,
  "options": {
    "validateUpsert": true
  },
  "mongodb": {
    "collection": "contactUs"
  },
  "mixins": {
    "Timestamp": {}
  },
  "properties": {
    "name": {
      "type": "string",
      "required": true
    },
    "mobile": {
      "type": "string",
      "required": true
    },
    "email": {
      "type": "string",
      "required": true
    },
    "isDeleted": {
      "type": "boolean",
      "default": false
    },
    "content": {
      "type": "string",
      "required": true
    },
    "reply": {
      "type": "string"
    }
  },
  "validations": [],
  "relations": { 

   },
  "acls": [
  ],
  "methods": {}
}
